{
  "minMuleVersion": "4.2.2",
  "secureProperties": [
    "anypoint.platform.client_id",
    "anypoint.platform.client_secret",
    "mule.vault.key",
    "secure::clientSsl.keystorePassword",
    "secure::clientSsl.privateKeyPassword"
  ]
}